<?xml version="1.0" encoding="utf-8"?>
<!-- Generator: Adobe Illustrator 22.1.0, SVG Export Plug-In . SVG Version: 6.00 Build 0)  -->
<svg version="1.1" id="Capa_1" xmlns="http://www.w3.org/2000/svg" xmlns:xlink="http://www.w3.org/1999/xlink" x="0px" y="0px"
	 viewBox="0 0 52 52" style="enable-background:new 0 0 52 52;" xml:space="preserve">
<style type="text/css">
	.st0{display:none;}
	.st1{display:inline;stroke:#27ae60;stroke-miterlimit:10;}
	.st2{fill:none;stroke:#27ae60;stroke-width:2;stroke-miterlimit:10;}
	.st3{fill:#FFFFFF;}
	.st4{fill:#27ae60;}
</style>
<g>
	<path class="st4" d="M26,0C11.7,0,0,11.7,0,26s11.7,26,26,26s26-11.7,26-26S40.3,0,26,0z M26,50C12.8,50,2,39.2,2,26S12.8,2,26,2s24,10.8,24,24
		S39.2,50,26,50z"/>
	<path class="st0" d="M38.5,25H27V14c0-0.6-0.4-1-1-1s-1,0.4-1,1v11H13.5c-0.6,0-1,0.4-1,1s0.4,1,1,1H25v12c0,0.6,0.4,1,1,1
		s1-0.4,1-1V27h11.5c0.6,0,1-0.4,1-1S39.1,25,38.5,25z"/>
</g>
<g class="st0">
	<path class="st1" d="M13,14.9v24.3H39V14.9H13z M38,20.4H19.2v-4.5H38V20.4z M25.4,21.3h5.9v16.8h-5.9V21.3z M24.5,38.2h-5.3V21.3
		h5.3V38.2z M18.2,15.8v4.5H14v-4.5H18.2z M14,21.3h4.2v16.8H14V21.3z M32.3,38.2V21.3H38v16.8H32.3z"/>
</g>
<g>
	<g>
		<polyline class="st2" points="9.3,36.6 15.8,27.4 21.8,34.4 28.3,21.4 33.8,28.2 41,17.7 		"/>
		<polyline class="st2" points="35.9,18.4 41.1,17.3 42.3,22.5 		"/>
	</g>
	<circle class="st4" cx="15.8" cy="27.4" r="2.2"/>
	<circle class="st4" cx="21.8" cy="34.4" r="2.2"/>
	<circle class="st4" cx="28.2" cy="21.2" r="2.2"/>
	<circle class="st4" cx="33.7" cy="28.4" r="2.2"/>
	<circle class="st3" cx="15.8" cy="27.4" r="0.7"/>
	<circle class="st3" cx="21.8" cy="34.4" r="0.7"/>
	<circle class="st3" cx="28.2" cy="21.2" r="0.7"/>
	<circle class="st3" cx="33.7" cy="28.4" r="0.7"/>
</g>
</svg>
